{
    "source": "mockoon:1.14.1",
    "data": [
        {
            "type": "environment",
            "item": {
                "uuid": "",
                "lastMigration": 15,
                "name": "Ibs shop",
                "endpointPrefix": "",
                "latency": 0,
                "port": 3006,
                "routes": [
                    {
                        "uuid": "",
                        "documentation": "",
                        "method": "get",
                        "endpoint": "item",
                        "responses": [
                            {
                                "uuid": "",
                                "body": "{\r\n  \"content\": [\r\n    {\r\n      \"id\": \"571fc60d-ea2c-469e-a5b6-c229d31f195d\",\r\n      \"name\": \"Светильник с голосовым управлением\",\r\n      \"description\": \"Светильник - ночник с голосовым управлением с множеством режимов подсветки\",\r\n      \"like\": false,\r\n      \"picture\": {\r\n        \"path\": \"/picture/min/80f09214-ea18-46bf-9cbd-22d7493060d9\",\r\n        \"alt\": \"Светильник с голосовым управлением, мультирежимный\"\r\n      },\r\n      \"price\": {\r\n        \"value\": 129,\r\n        \"currency\": \"USD\"\r\n      }\r\n    },\r\n    {\r\n      \"id\": \"eb043059-4135-4e56-8b7b-c18f5030349b\",\r\n      \"name\": \"Светильник с голосовым управлением\",\r\n      \"description\": \"Светильник - ночник с голосовым управлением с множеством режимов подсветки\",\r\n      \"like\": false,\r\n      \"picture\": {\r\n        \"path\": \"/picture/min/80f09214-ea18-46bf-9cbd-22d7493060d9\",\r\n        \"alt\": \"Светильник с голосовым управлением, мультирежимный\"\r\n      },\r\n      \"price\": {\r\n        \"value\": 129,\r\n        \"currency\": \"USD\"\r\n      }\r\n    },\r\n    {\r\n      \"id\": \"676cb8a6-a5e0-497d-b3b0-b4d7f8217ab8\",\r\n      \"name\": \"Светильник с голосовым управлением\",\r\n      \"description\": \"Светильник - ночник с голосовым управлением с множеством режимов подсветки\",\r\n      \"like\": true,\r\n      \"picture\": {\r\n        \"path\": \"/picture/min/80f09214-ea18-46bf-9cbd-22d7493060d9\",\r\n        \"alt\": \"Светильник с голосовым управлением, мультирежимный\"\r\n      },\r\n      \"price\": {\r\n        \"value\": 129,\r\n        \"currency\": \"USD\"\r\n      }\r\n    },\r\n    {\r\n      \"id\": \"bd095406-81b3-4b22-bc37-d601b2aa0625\",\r\n      \"name\": \"Светильник с голосовым управлением\",\r\n      \"description\": \"Светильник - ночник с голосовым управлением с множеством режимов подсветки\",\r\n      \"like\": false,\r\n      \"picture\": {\r\n        \"path\": \"/picture/min/80f09214-ea18-46bf-9cbd-22d7493060d9\",\r\n        \"alt\": \"Светильник с голосовым управлением, мультирежимный\"\r\n      },\r\n      \"price\": {\r\n        \"value\": 129,\r\n        \"currency\": \"USD\"\r\n      }\r\n    },\r\n    {\r\n      \"id\": \"21d9ebf1-5148-4578-bdea-82324c133011\",\r\n      \"name\": \"Светильник с голосовым управлением\",\r\n      \"description\": \"Светильник - ночник с голосовым управлением с множеством режимов подсветки\",\r\n      \"like\": false,\r\n      \"picture\": {\r\n        \"path\": \"/picture/min/80f09214-ea18-46bf-9cbd-22d7493060d9\",\r\n        \"alt\": \"Светильник с голосовым управлением, мультирежимный\"\r\n      },\r\n      \"price\": {\r\n        \"value\": 129,\r\n        \"currency\": \"USD\"\r\n      }\r\n    },\r\n    {\r\n      \"id\": \"86bd99c2-c620-442b-a032-3825b101a261\",\r\n      \"name\": \"Светильник с голосовым управлением\",\r\n      \"description\": \"Светильник - ночник с голосовым управлением с множеством режимов подсветки\",\r\n      \"like\": false,\r\n      \"picture\": {\r\n        \"path\": \"/picture/min/80f09214-ea18-46bf-9cbd-22d7493060d9\",\r\n        \"alt\": \"Светильник с голосовым управлением, мультирежимный\"\r\n      },\r\n      \"price\": {\r\n        \"value\": 129,\r\n        \"currency\": \"USD\"\r\n      }\r\n    },\r\n    {\r\n      \"id\": \"4181245c-c36a-4009-8912-c52cfb3d18f7\",\r\n      \"name\": \"Светильник с голосовым управлением\",\r\n      \"description\": \"Светильник - ночник с голосовым управлением с множеством режимов подсветки\",\r\n      \"like\": false,\r\n      \"picture\": {\r\n        \"path\": \"/picture/min/80f09214-ea18-46bf-9cbd-22d7493060d9\",\r\n        \"alt\": \"Светильник с голосовым управлением, мультирежимный\"\r\n      },\r\n      \"price\": {\r\n        \"value\": 129,\r\n        \"currency\": \"USD\"\r\n      }\r\n    },\r\n    {\r\n      \"id\": \"4c1f3377-6fa0-4c96-9d64-5e1376c30e17\",\r\n      \"name\": \"Светильник с голосовым управлением\",\r\n      \"description\": \"Светильник - ночник с голосовым управлением с множеством режимов подсветки\",\r\n      \"like\": false,\r\n      \"picture\": {\r\n        \"path\": \"/picture/min/80f09214-ea18-46bf-9cbd-22d7493060d9\",\r\n        \"alt\": \"Светильник с голосовым управлением, мультирежимный\"\r\n      },\r\n      \"price\": {\r\n        \"value\": 129,\r\n        \"currency\": \"USD\"\r\n      }\r\n    },\r\n    {\r\n      \"id\": \"01decc79-0501-45b0-b35f-82c93db6b2b8\",\r\n      \"name\": \"Светильник с голосовым управлением\",\r\n      \"description\": \"Светильник - ночник с голосовым управлением с множеством режимов подсветки\",\r\n      \"like\": false,\r\n      \"picture\": {\r\n        \"path\": \"/picture/min/80f09214-ea18-46bf-9cbd-22d7493060d9\",\r\n        \"alt\": \"Светильник с голосовым управлением, мультирежимный\"\r\n      },\r\n      \"price\": {\r\n        \"value\": 129,\r\n        \"currency\": \"USD\"\r\n      }\r\n    },\r\n    {\r\n      \"id\": \"3182fcf3-94f0-4c54-ac0a-4d87c168c9ed\",\r\n      \"name\": \"Светильник с голосовым управлением\",\r\n      \"description\": \"Светильник - ночник с голосовым управлением с множеством режимов подсветки\",\r\n      \"like\": false,\r\n      \"picture\": {\r\n        \"path\": \"/picture/min/80f09214-ea18-46bf-9cbd-22d7493060d9\",\r\n        \"alt\": \"Светильник с голосовым управлением, мультирежимный\"\r\n      },\r\n      \"price\": {\r\n        \"value\": 129,\r\n        \"currency\": \"USD\"\r\n      }\r\n    },\r\n    {\r\n      \"id\": \"3f1ed735-eb1f-414e-84f2-eff7cdcaa35f\",\r\n      \"name\": \"Голосовая колонка\",\r\n      \"description\": \"Голосовая колонка с подключаемыми модулями\",\r\n      \"like\": false,\r\n      \"picture\": {\r\n        \"path\": \"/picture/min/80f09214-ea18-46bf-9cbd-22d7493060d9\",\r\n        \"alt\": \"Голосовая колонка с подключаемыми модулями\"\r\n      },\r\n      \"price\": {\r\n        \"value\": 320.99,\r\n        \"currency\": \"USD\"\r\n      }\r\n    },\r\n    {\r\n      \"id\": \"393173af-1b9c-49ae-9166-7282ad6d4c48\",\r\n      \"name\": \"Голосовая колонка\",\r\n      \"description\": \"Голосовая колонка с подключаемыми модулями\",\r\n      \"like\": false,\r\n      \"picture\": {\r\n        \"path\": \"/picture/min/80f09214-ea18-46bf-9cbd-22d7493060d9\",\r\n        \"alt\": \"Голосовая колонка с подключаемыми модулями\"\r\n      },\r\n      \"price\": {\r\n        \"value\": 320.99,\r\n        \"currency\": \"USD\"\r\n      }\r\n    },\r\n    {\r\n      \"id\": \"6d74fd07-ceff-4fc1-877b-9d5d59306a9d\",\r\n      \"name\": \"Голосовая колонка\",\r\n      \"description\": \"Голосовая колонка с подключаемыми модулями\",\r\n      \"like\": false,\r\n      \"picture\": {\r\n        \"path\": \"/picture/min/80f09214-ea18-46bf-9cbd-22d7493060d9\",\r\n        \"alt\": \"Голосовая колонка с подключаемыми модулями\"\r\n      },\r\n      \"price\": {\r\n        \"value\": 320.99,\r\n        \"currency\": \"USD\"\r\n      }\r\n    },\r\n    {\r\n      \"id\": \"d3bd6930-3be3-4093-833c-1f82942006d5\",\r\n      \"name\": \"Голосовая колонка\",\r\n      \"description\": \"Голосовая колонка с подключаемыми модулями\",\r\n      \"like\": false,\r\n      \"picture\": {\r\n        \"path\": \"/picture/min/80f09214-ea18-46bf-9cbd-22d7493060d9\",\r\n        \"alt\": \"Голосовая колонка с подключаемыми модулями\"\r\n      },\r\n      \"price\": {\r\n        \"value\": 320.99,\r\n        \"currency\": \"USD\"\r\n      }\r\n    },\r\n    {\r\n      \"id\": \"d70a67de-8a2c-40d4-b0c0-7ac3b6dca47a\",\r\n      \"name\": \"Голосовая колонка\",\r\n      \"description\": \"Голосовая колонка с подключаемыми модулями\",\r\n      \"like\": false,\r\n      \"picture\": {\r\n        \"path\": \"/picture/min/80f09214-ea18-46bf-9cbd-22d7493060d9\",\r\n        \"alt\": \"Голосовая колонка с подключаемыми модулями\"\r\n      },\r\n      \"price\": {\r\n        \"value\": 320.99,\r\n        \"currency\": \"USD\"\r\n      }\r\n    },\r\n    {\r\n      \"id\": \"4d4a70f0-4489-4499-a962-e8314998e3c7\",\r\n      \"name\": \"Голосовая колонка\",\r\n      \"description\": \"Голосовая колонка с подключаемыми модулями\",\r\n      \"like\": false,\r\n      \"picture\": {\r\n        \"path\": \"/picture/min/80f09214-ea18-46bf-9cbd-22d7493060d9\",\r\n        \"alt\": \"Голосовая колонка с подключаемыми модулями\"\r\n      },\r\n      \"price\": {\r\n        \"value\": 320.99,\r\n        \"currency\": \"USD\"\r\n      }\r\n    },\r\n    {\r\n      \"id\": \"d916c94d-1ffb-479e-86fb-ad5895d3384a\",\r\n      \"name\": \"Голосовая колонка\",\r\n      \"description\": \"Голосовая колонка с подключаемыми модулями\",\r\n      \"like\": false,\r\n      \"picture\": {\r\n        \"path\": \"/picture/min/80f09214-ea18-46bf-9cbd-22d7493060d9\",\r\n        \"alt\": \"Голосовая колонка с подключаемыми модулями\"\r\n      },\r\n      \"price\": {\r\n        \"value\": 320.99,\r\n        \"currency\": \"USD\"\r\n      }\r\n    },\r\n    {\r\n      \"id\": \"9d57bdca-a51c-4a7d-929e-21bb9b676560\",\r\n      \"name\": \"Голосовая колонка\",\r\n      \"description\": \"Голосовая колонка с подключаемыми модулями\",\r\n      \"like\": true,\r\n      \"picture\": {\r\n        \"path\": \"/picture/min/80f09214-ea18-46bf-9cbd-22d7493060d9\",\r\n        \"alt\": \"Голосовая колонка с подключаемыми модулями\"\r\n      },\r\n      \"price\": {\r\n        \"value\": 320.99,\r\n        \"currency\": \"USD\"\r\n      }\r\n    },\r\n    {\r\n      \"id\": \"67d21d8d-d096-4c5d-aac8-c2376f936118\",\r\n      \"name\": \"Голосовая колонка\",\r\n      \"description\": \"Голосовая колонка с подключаемыми модулями\",\r\n      \"like\": false,\r\n      \"picture\": {\r\n        \"path\": \"/picture/min/80f09214-ea18-46bf-9cbd-22d7493060d9\",\r\n        \"alt\": \"Голосовая колонка с подключаемыми модулями\"\r\n      },\r\n      \"price\": {\r\n        \"value\": 320.99,\r\n        \"currency\": \"USD\"\r\n      }\r\n    },\r\n    {\r\n      \"id\": \"981b9252-d062-41e6-bd8f-7a4f4a3dd8e0\",\r\n      \"name\": \"Голосовая колонка\",\r\n      \"description\": \"Голосовая колонка с подключаемыми модулями\",\r\n      \"like\": false,\r\n      \"picture\": {\r\n        \"path\": \"/picture/min/80f09214-ea18-46bf-9cbd-22d7493060d9\",\r\n        \"alt\": \"Голосовая колонка с подключаемыми модулями\"\r\n      },\r\n      \"price\": {\r\n        \"value\": 320.99,\r\n        \"currency\": \"USD\"\r\n      }\r\n    }\r\n  ]\r\n}",
                                "latency": 0,
                                "statusCode": 200,
                                "label": "",
                                "headers": [
                                    {
                                        "key": "",
                                        "value": ""
                                    }
                                ],
                                "filePath": "",
                                "sendFileAsBody": false,
                                "rules": [],
                                "rulesOperator": "OR",
                                "disableTemplating": false
                            }
                        ],
                        "enabled": true,
                        "randomResponse": false,
                        "sequentialResponse": false
                    },
                    {
                        "uuid": "",
                        "documentation": "",
                        "method": "get",
                        "endpoint": "item/:itemId",
                        "responses": [
                            {
                                "uuid": "",
                                "body": "{\n  \"content\": {\n    \"id\": \"571fc60d-ea2c-469e-a5b6-c229d31f195d\",\n    \"name\": \"Светильник с голосовым управлением\",\n    \"description\": \"Светильник - ночник с голосовым управлением с множеством режимов подсветки\",\n    \"info\": \"Узнаваемость марки, безусловно, создает нестандартный подход, полагаясь на инсайдерскую информацию. Узнавание бренда упорядочивает показ баннера, невзирая на действия конкурентов. Поэтому системный анализ тормозит из ряда вон выходящий медийный канал.\",\n    \"details\": \"Стратегия позиционирования, на первый взгляд, отталкивает нишевый проект. Создание приверженного покупателя, в рамках сегодняшних воззрений, обуславливает потребительский выставочный стенд, учитывая современные тенденции. Узнавание бренда, как принято считать, отражает медиавес, расширяя долю рынка. Восприятие марки без оглядки на авторитеты допускает межличностный потребительский рынок.\",\n    \"like\": false,\n    \"picture\": {\n      \"path\": \"/picture/full/06c4a148-7892-435e-a168-56c86b0940a0\",\n      \"alt\": \"Светильник с голосовым управлением, мультирежимный\"\n    },\n    \"price\": {\n      \"value\": 129,\n      \"currency\": \"USD\"\n    }\n  }\n}",
                                "latency": 0,
                                "statusCode": 200,
                                "label": "",
                                "headers": [
                                    {
                                        "key": "",
                                        "value": ""
                                    }
                                ],
                                "filePath": "",
                                "sendFileAsBody": false,
                                "rules": [],
                                "rulesOperator": "OR",
                                "disableTemplating": false
                            }
                        ],
                        "enabled": true,
                        "randomResponse": false,
                        "sequentialResponse": false
                    },
                    {
                        "uuid": "",
                        "documentation": "",
                        "method": "get",
                        "endpoint": "picture/min/:pictureId",
                        "responses": [
                            {
                                "uuid": "",
                                "body": "{}",
                                "latency": 0,
                                "statusCode": 200,
                                "label": "",
                                "headers": [
                                    {
                                        "key": "",
                                        "value": ""
                                    }
                                ],
                                "filePath": "E:\\Projects\\ibs\\mock\\min.png",
                                "sendFileAsBody": false,
                                "rules": [],
                                "rulesOperator": "OR",
                                "disableTemplating": false
                            }
                        ],
                        "enabled": true,
                        "randomResponse": false,
                        "sequentialResponse": false
                    },
                    {
                        "uuid": "",
                        "documentation": "",
                        "method": "get",
                        "endpoint": "picture/full/:pictureId",
                        "responses": [
                            {
                                "uuid": "",
                                "body": "{}",
                                "latency": 0,
                                "statusCode": 200,
                                "label": "",
                                "headers": [
                                    {
                                        "key": "",
                                        "value": ""
                                    }
                                ],
                                "filePath": "E:\\Projects\\ibs\\mock\\full.png",
                                "sendFileAsBody": false,
                                "rules": [],
                                "rulesOperator": "OR",
                                "disableTemplating": false
                            }
                        ],
                        "enabled": true,
                        "randomResponse": false,
                        "sequentialResponse": false
                    }
                ],
                "proxyMode": false,
                "proxyHost": "",
                "https": false,
                "cors": true,
                "headers": [
                    {
                        "key": "Content-Type",
                        "value": "application/json"
                    },
                    {
                        "key": "Access-Control-Allow-Origin",
                        "value": "*"
                    },
                    {
                        "key": "Access-Control-Allow-Methods",
                        "value": "GET,POST,PUT,PATCH,DELETE,HEAD,OPTIONS"
                    },
                    {
                        "key": "Access-Control-Allow-Headers",
                        "value": "Content-Type, Origin, Accept, Authorization, Content-Length, X-Requested-With"
                    }
                ],
                "proxyReqHeaders": [
                    {
                        "key": "",
                        "value": ""
                    }
                ],
                "proxyResHeaders": [
                    {
                        "key": "",
                        "value": ""
                    }
                ],
                "proxyRemovePrefix": false
            }
        },
        {
            "type": "environment",
            "item": {
                "uuid": "",
                "lastMigration": 15,
                "name": "resume",
                "endpointPrefix": "",
                "latency": 0,
                "port": 3008,
                "routes": [
                    {
                        "uuid": "",
                        "documentation": "",
                        "method": "post",
                        "endpoint": "resume",
                        "responses": [
                            {
                                "uuid": "",
                                "body": "{\r\n    \"id\": \"12345678901234567890123456789012abcdef\",\r\n    \"name\": \"Фамилия Имя Отчество\", //\"Имя Фамилия\"\r\n    \"age\": 23,\r\n    \"birth_date\": \"1998-04-26\",\r\n    \"gender\": \"male\",\r\n    \"area\": \"Москва\",\r\n    \"about\": \"Xороший кандидат\",\r\n    \"title\": \"Frontend-разработчик\",\r\n    \"contacts\": [\r\n        {\r\n            \"type\": \"cell\",\r\n            \"value\": \"+71234567890\"\r\n        },\r\n        {\r\n            \"type\": \"email\",\r\n            \"preferred\": false,\r\n            \"value\": \"applicant@example.com\"\r\n        },\r\n        {\r\n            \"type\": \"skype\",\r\n            \"value\": \"echo123\"\r\n        },\r\n        {\r\n            \"type\": \"icq\",\r\n            \"value\": \"123456\"\r\n        }\r\n    ],\r\n    \"photo\": {\r\n        \"small\": \"https://hh.ru/...\",\r\n        \"medium\": \"https://hh.ru/...\"\r\n    },\r\n    \"education\": {\r\n        \"elementary\": [\r\n            {\r\n                \"name\": \"Школа №1923\",\r\n                \"year\": 2003\r\n            }\r\n        ],\r\n        \"additional\": [\r\n            {\r\n                \"name\": \"Курс повышения квалификации\",\r\n                \"organization\": \"Проводившая организация\",\r\n                \"result\": \"Специализация\",\r\n                \"year\": 2006\r\n            }\r\n        ],\r\n        \"attestation\": [\r\n            {\r\n                \"name\": \"Тест на IQ\",\r\n                \"organization\": \"IQ центр\",\r\n                \"result\": \"Интеллект квалификейшн\",\r\n                \"year\": 2005\r\n            }\r\n        ],\r\n        \"primary\": [\r\n            {\r\n                \"name\": \"Московская государственная академия ветеринарной медицины и биотехнологии имени К.И. Скрябина, Москва\",\r\n                \"organization\": \"Факультет зоотехнологий и агробизнеса\",\r\n                \"result\": \"Социальная психология\",\r\n                \"year\": 2000\r\n            }\r\n        ]\r\n    },\r\n    \"language\": [\r\n        {\r\n            \"id\": \"rus\",\r\n            \"name\": \"Русский\",\r\n            \"level\": \"native\"\r\n        },\r\n        {\r\n            \"id\": \"eng\",\r\n            \"name\": \"Английский\",\r\n            \"level\": \"b2\"\r\n        }\r\n    ],\r\n    \"experience\": [\r\n        {\r\n            \"company\": \"Название работодателя\",\r\n            \"area\": \"Россия\",\r\n            \"position\": \"Должность\",\r\n            \"start\": \"2005-04-01\",\r\n            \"end\": \"2013-01-01\",\r\n            \"description\": \"Описание деятельности в компании\"\r\n        }\r\n    ],\r\n    \"skill_set\": [\r\n        \"HTML\",\r\n        \"CSS\",\r\n        \"JavaScript\"\r\n    ]\r\n}",
                                "latency": 0,
                                "statusCode": 200,
                                "label": "",
                                "headers": [
                                    {
                                        "key": "",
                                        "value": ""
                                    }
                                ],
                                "filePath": "",
                                "sendFileAsBody": false,
                                "rules": [],
                                "rulesOperator": "OR",
                                "disableTemplating": false
                            }
                        ],
                        "enabled": true,
                        "randomResponse": false,
                        "sequentialResponse": false
                    },
                    {
                        "uuid": "",
                        "documentation": "",
                        "method": "get",
                        "endpoint": "resume/:resumeId",
                        "responses": [
                            {
                                "uuid": "",
                                "body": "{\r\n      \"resultCode\": 1,\r\n      \"resume\":  {\r\n          \"id\": \"5f134ef8ff074aa1fe0039ed1f794c797a7644\",\r\n          \"photo\": \"https://freesvg.org/img/Linux-Avatar.png\",\r\n          \"name\": \"Камиль Кузеров\"\r\n       }\r\n}",
                                "latency": 0,
                                "statusCode": 200,
                                "label": "",
                                "headers": [
                                    {
                                        "key": "",
                                        "value": ""
                                    }
                                ],
                                "filePath": "",
                                "sendFileAsBody": false,
                                "rules": [],
                                "rulesOperator": "OR",
                                "disableTemplating": false
                            },
                            {
                                "uuid": "",
                                "body": "{\r\n      \"resultCode\": 0,\r\n      \"message\": \"resume not founded\"\r\n}",
                                "latency": 0,
                                "statusCode": 200,
                                "label": "",
                                "headers": [],
                                "filePath": "",
                                "sendFileAsBody": false,
                                "rules": [],
                                "rulesOperator": "OR",
                                "disableTemplating": false
                            }
                        ],
                        "enabled": true,
                        "randomResponse": false,
                        "sequentialResponse": true
                    }
                ],
                "proxyMode": false,
                "proxyHost": "",
                "https": false,
                "cors": true,
                "headers": [
                    {
                        "key": "Content-Type",
                        "value": "application/json"
                    },
                    {
                        "key": "Access-Control-Allow-Origin",
                        "value": "*"
                    },
                    {
                        "key": "Access-Control-Allow-Methods",
                        "value": "GET,POST,PUT,PATCH,DELETE,HEAD,OPTIONS"
                    },
                    {
                        "key": "Access-Control-Allow-Headers",
                        "value": "Content-Type, Origin, Accept, Authorization, Content-Length, X-Requested-With"
                    }
                ],
                "proxyReqHeaders": [
                    {
                        "key": "",
                        "value": ""
                    }
                ],
                "proxyResHeaders": [
                    {
                        "key": "",
                        "value": ""
                    }
                ],
                "proxyRemovePrefix": false
            }
        }
    ]
}